<?xml version="1.0" encoding="UTF-8" standalone="no"?>
<!-- Created with Inkscape (http://www.inkscape.org/) -->

<svg
   xmlns:dc="http://purl.org/dc/elements/1.1/"
   xmlns:cc="http://creativecommons.org/ns#"
   xmlns:rdf="http://www.w3.org/1999/02/22-rdf-syntax-ns#"
   xmlns:svg="http://www.w3.org/2000/svg"
   xmlns="http://www.w3.org/2000/svg"
   xmlns:sodipodi="http://sodipodi.sourceforge.net/DTD/sodipodi-0.dtd"
   xmlns:inkscape="http://www.inkscape.org/namespaces/inkscape"
   width="210mm"
   height="297mm"
   viewBox="0 0 210 297"
   version="1.1"
   id="svg74"
   inkscape:version="0.92.3 (2405546, 2018-03-11)"
   sodipodi:docname="Rocket.svg"
   inkscape:export-filename="/home/boss/Documents/GitlabThings/deathmatch/Ammunition/Rocket/Rocket.png"
   inkscape:export-xdpi="2.7367003"
   inkscape:export-ydpi="2.7367003">
  <defs
     id="defs68" />
  <sodipodi:namedview
     id="base"
     pagecolor="#ffffff"
     bordercolor="#666666"
     borderopacity="1.0"
     inkscape:pageopacity="0.0"
     inkscape:pageshadow="2"
     inkscape:zoom="0.7"
     inkscape:cx="95.668519"
     inkscape:cy="516.08359"
     inkscape:document-units="mm"
     inkscape:current-layer="layer1"
     showgrid="false"
     inkscape:window-width="2560"
     inkscape:window-height="1381"
     inkscape:window-x="0"
     inkscape:window-y="0"
     inkscape:window-maximized="1" />
  <metadata
     id="metadata71">
    <rdf:RDF>
      <cc:Work
         rdf:about="">
        <dc:format>image/svg+xml</dc:format>
        <dc:type
           rdf:resource="http://purl.org/dc/dcmitype/StillImage" />
        <dc:title></dc:title>
      </cc:Work>
    </rdf:RDF>
  </metadata>
  <g
     inkscape:label="Layer 1"
     inkscape:groupmode="layer"
     id="layer1">
    <rect
       style="fill:#48373e;stroke-width:0.26458332"
       id="rect87"
       width="69.547623"
       height="114.90475"
       x="63.5"
       y="74.372025"
       rx="0.39999971"
       ry="0.30000046" />
    <path
       style="fill:#ff6600;stroke:#000000;stroke-width:0.26458332px;stroke-linecap:butt;stroke-linejoin:miter;stroke-opacity:1"
       d="m 63.499999,189.27676 c -0.795795,2.38741 0.0409,2.26788 -1.133927,2.26788 -0.125992,0 -0.288888,-0.0891 -0.377979,0 -0.08909,0.0891 0.08909,0.28889 0,0.37798 -0.09095,0.0909 -1.42095,-0.091 -1.511903,0 -0.08909,0.0891 0,0.25198 0,0.37797 -0.125992,0 -0.288888,-0.0891 -0.377976,0 -0.08909,0.0891 0.08909,0.28889 0,0.37798 -0.178181,0.17818 -0.577773,-0.17818 -0.755954,0 -0.08909,0.0891 0.08909,0.28888 0,0.37797 -0.178178,0.17819 -0.577771,-0.17817 -0.755952,0 -0.08909,0.0891 0.08909,0.28889 0,0.37798 -0.08909,0.0891 -0.265284,-0.0563 -0.377975,0 -0.15937,0.0797 -0.218607,0.29829 -0.377976,0.37798 -0.112692,0.0563 -0.265287,-0.0564 -0.377976,0 -0.159369,0.0797 -0.218609,0.29829 -0.377976,0.37797 -0.112691,0.0564 -0.288888,-0.0891 -0.377978,0 -0.08909,0.0891 0,0.25199 0,0.37798 -0.125992,0 -0.288886,-0.0891 -0.377976,0 -0.08909,0.0891 0.08909,0.28889 0,0.37798 -0.08909,0.0891 -0.265285,-0.0563 -0.377976,0 -0.159369,0.0797 -0.218607,0.29829 -0.377976,0.37797 -0.112691,0.0564 -0.288885,-0.0891 -0.377976,0 -0.08909,0.0891 0.08909,0.28889 0,0.37798 -0.08909,0.0891 -0.288887,-0.0891 -0.377975,0 -0.08909,0.0891 0.08909,0.28889 0,0.37797 -0.08909,0.0891 -0.288888,-0.0891 -0.377976,0 -0.08909,0.0891 0.08909,0.28889 0,0.37798 -0.08909,0.0891 -0.288888,-0.0891 -0.377979,0 -0.08909,0.0891 0.08909,0.28889 0,0.37798 -0.08909,0.0891 -0.288885,-0.0891 -0.377975,0 -0.08909,0.0891 0.08909,0.28888 0,0.37797 -0.08909,0.0891 -0.288886,-0.0891 -0.377976,0 -0.08909,0.0891 0.08909,0.28889 0,0.37798 -0.08909,0.0891 -0.288886,-0.0891 -0.377976,0 -0.178178,0.17818 0.178181,0.57777 0,0.75595 -0.08909,0.0891 -0.288885,-0.0891 -0.377976,0 -0.08909,0.0891 0.08909,0.28889 0,0.37798 -0.08909,0.0891 -0.288888,-0.0891 -0.377976,0 -0.178181,0.17818 0.178179,0.57777 0,0.75595 -0.08909,0.0891 -0.288888,-0.0891 -0.377975,0 -0.08909,0.0891 0.08909,0.28889 0,0.37798 -0.08909,0.0891 -0.288888,-0.0891 -0.377979,0 -0.08909,0.0891 0.05635,0.26528 0,0.37797 -0.07968,0.15937 -0.298291,0.21861 -0.377976,0.37798 -0.05635,0.11269 0.05635,0.26528 0,0.37797 -0.8128,1.6256 0.05685,-0.86964 -0.755951,0.75596 -0.112692,0.22538 0.112691,0.53057 0,0.75595 -0.07969,0.15937 -0.298292,0.21861 -0.377976,0.37798 -0.05635,0.11269 0.08909,0.28888 0,0.37797 -0.08909,0.0891 -0.288888,-0.0891 -0.377976,0 -0.08909,0.0891 0.05635,0.26529 0,0.37798 -0.07968,0.15937 -0.298291,0.2186 -0.377976,0.37797 -0.112691,0.22539 0.178179,0.57778 0,0.75596 -0.08909,0.0891 -0.288888,-0.0891 -0.377978,0 -0.178179,0.17818 0.178181,0.57777 0,0.75595 -0.08909,0.0891 -0.288885,-0.0891 -0.377976,0 -0.07727,0.0773 0.07493,0.98406 0,1.13393 -0.07969,0.15937 -0.298291,0.21861 -0.377976,0.37797 -0.112691,0.22539 0.112692,0.53057 0,0.75596 -0.07968,0.15937 -0.298291,0.2186 -0.377976,0.37797 -0.112691,0.22538 0.178181,0.57778 0,0.75595 -0.08909,0.0891 -0.288885,-0.0891 -0.377975,0 -0.117039,0.11705 0.117038,1.77285 0,1.88989 -0.08909,0.0891 -0.288888,-0.0891 -0.377976,0 -0.01714,0.0171 0,1.71166 0,1.88988 0,1.00793 0.125992,-0.12599 -0.377976,0.37797 -0.08909,0.0891 0,0.25199 0,0.37798 0,0.12599 0,0.25198 0,0.37798 0,1.76388 0,3.52777 0,5.29166 0,0.13881 0.01521,1.4967 0,1.51191 -0.08909,0.0891 -0.288888,-0.0891 -0.377978,0 -0.08909,0.0891 0,0.25198 0,0.37797 0,0.75596 0,1.51191 0,2.26786 0,0.75595 0,1.5119 0,2.26786 0,0.17022 -0.05752,1.0189 0,1.13393 0.07968,0.15937 0.298293,0.2186 0.377978,0.37797 0.07493,0.14987 -0.07727,1.05666 0,1.13393 0.08909,0.0891 0.288885,-0.0891 0.377976,0 0.178178,0.17818 -0.178181,0.57777 0,0.75595 0.08909,0.0891 0.288885,-0.0891 0.377976,0 0.188986,0.18899 -0.18899,0.94494 0,1.13393 0.08909,0.0891 0.288885,-0.0891 0.377975,0 0.782048,0.78205 -1.19507,-0.0306 0.377976,0.75595 0.112692,0.0563 0.288888,-0.0891 0.377976,0 0.178181,0.17818 -0.178178,0.57778 0,0.75596 0.08909,0.0891 0.288888,-0.0891 0.377976,0 0,1.00793 -0.125992,-0.126 0.377978,0.37797 0.249018,0.24902 -0.24902,0.50694 0,0.75595 0.178179,0.17819 0.577771,-0.17817 0.755952,0 0.08909,0.0891 -0.08909,0.28889 0,0.37798 0.08909,0.0891 0.288885,-0.0891 0.377976,0 0.08909,0.0891 -0.08909,0.28889 0,0.37798 0.08909,0.0891 0.288885,-0.0891 0.377976,0 0.08909,0.0891 -0.08909,0.28888 0,0.37797 0.08909,0.0891 0.288887,-0.0891 0.377975,0 0.08909,0.0891 -0.08909,0.28889 0,0.37798 0.178181,0.17818 0.577774,-0.17818 0.755955,0 0.08909,0.0891 -0.08909,0.28889 0,0.37798 1.007935,0 -0.125992,-0.126 0.377975,0.37797 0.178179,0.17818 0.577774,-0.17818 0.755952,0 0.08909,0.0891 -0.08909,0.28889 0,0.37798 1.007935,0 -0.125992,-0.12599 0.377976,0.37797 0.178181,0.17818 0.577773,-0.17818 0.755951,0 0,1.00794 -0.125992,-0.12599 0.377979,0.37798 0.08909,0.0891 -0.08909,0.28889 0,0.37798 0.178178,0.17818 0.57777,-0.17818 0.755951,0 0.08909,0.0891 -0.08909,0.28888 0,0.37797 0.178179,0.17818 0.577774,-0.17818 0.755952,0 0.08909,0.0891 -0.08909,0.28889 0,0.37798 0.178181,0.17818 0.530572,-0.11269 0.755952,0 0.159369,0.0797 0.218609,0.29829 0.377978,0.37797 0.22538,0.1127 0.577771,-0.17817 0.755952,0 0.08909,0.0891 -0.08909,0.28889 0,0.37798 0.188986,0.18899 0.944941,-0.18899 1.133927,0 0.08909,0.0891 -0.08909,0.28889 0,0.37798 0.08909,0.0891 0.251984,0 0.377976,0 0.125992,0 0.251987,0 0.377978,0 0.62996,0 1.25992,0 1.88988,0 0.125991,0 0.251983,0 0.377975,0 0.125992,0 0.265287,0.0563 0.377979,0 0.93413,-0.46707 -0.130472,-0.37798 0.755951,-0.37798 0.125992,0 0.251984,0 0.377976,0 0.125992,0 0.288886,0.0891 0.377976,0 0.08909,-0.0891 -0.08909,-0.28888 0,-0.37798 0.188989,-0.18898 0.944941,0.18899 1.13393,0 0.08909,-0.0891 -0.08909,-0.28888 0,-0.37797 0.188987,-0.18899 0.944938,0.18899 1.133927,0 0.08909,-0.0891 -0.08909,-0.28889 0,-0.37798 0.08909,-0.0891 0.288886,0.0891 0.377976,0 0.08909,-0.0891 -0.08909,-0.28888 0,-0.37797 0.08909,-0.0891 0.288888,0.0891 0.377976,0 0.08909,-0.0891 -0.08909,-0.28889 0,-0.37798 0.08909,-0.0891 0.288888,0.0891 0.377976,0 0.07727,-0.0773 -0.07493,-0.98406 0,-1.13393 0.07968,-0.15937 0.298294,-0.21861 0.377978,-0.37797 0.05634,-0.1127 0,-0.25199 0,-0.37798 0,-0.12599 0,-0.25198 0,-0.37798 0,-1.00793 -0.125992,0.126 0.377976,-0.37797 0.08909,-0.0891 0,-0.25199 0,-0.37798 0,-0.62996 0,-1.25992 0,-1.88988 0,-0.12599 -0.08909,-0.28889 0,-0.37798 0.08909,-0.0891 0.288885,0.0891 0.377976,0 0.01521,-0.0152 0,-1.3731 0,-1.5119 0,-0.17822 -0.01714,-1.87275 0,-1.88988 0.08909,-0.0891 0.288885,0.0891 0.377976,0 0.117038,-0.11704 -0.117039,-1.77284 0,-1.88988 0.08909,-0.0891 0.288885,0.0891 0.377976,0 0.08909,-0.0891 0,-0.25199 0,-0.37798 0,-0.75595 0,-1.5119 0,-2.26786 0,-0.12599 0,-0.25198 0,-0.37797 0,-0.126 -0.08909,-0.28889 0,-0.37798 0.08909,-0.0891 0.288888,0.0891 0.377975,0 0.117041,-0.11704 -0.117038,-1.77284 0,-1.88988 0.08909,-0.0891 0.251984,0 0.377976,0 0.09167,0 1.121775,-0.0121 1.13393,0 0.08909,0.0891 -0.08909,0.28889 0,0.37798 0.08909,0.0891 0.288886,-0.0891 0.377976,0 0.178181,0.17818 -0.178178,0.57777 0,0.75595 0.08909,0.0891 0.288885,-0.0891 0.377976,0 0.178181,0.17818 -0.178178,0.57777 0,0.75595 0.08909,0.0891 0.288888,-0.0891 0.377976,0 0.08909,0.0891 -0.08909,0.28889 0,0.37798 0.08909,0.0891 0.288888,-0.0891 0.377976,0 0.178181,0.17818 -0.178179,0.57777 0,0.75595 0.08909,0.0891 0.288887,-0.0891 0.377978,0 0.188987,0.18899 -0.188989,0.94494 0,1.13393 0.08909,0.0891 0.288885,-0.0891 0.377976,0 0.178178,0.17818 -0.178181,0.57777 0,0.75595 0.08909,0.0891 0.288885,-0.0891 0.377976,0 0.07727,0.0773 -0.07493,0.98406 0,1.13393 0.07968,0.15937 0.298291,0.21861 0.377975,0.37798 0.112692,0.22538 -0.112691,0.53057 0,0.75595 0.07968,0.15937 0.298292,0.2186 0.377976,0.37797 0.112692,0.22539 -0.112691,0.53057 0,0.75596 0.07968,0.15936 0.298291,0.2186 0.377976,0.37797 0.102523,0.20505 -0.103423,1.40848 0,1.51191 0.08909,0.0891 0.288888,-0.0891 0.377976,0 0.08909,0.0891 0,0.25198 0,0.37797 0,0.62996 0,1.25992 0,1.88988 0,0.126 -0.08909,0.28889 0,0.37798 0.08909,0.0891 0.288888,-0.0891 0.377978,0 0.08909,0.0891 0,0.25198 0,0.37798 0,0.62996 0,1.25992 0,1.88988 0,0.12599 0.08909,0.28889 0,0.37797 -0.08909,0.0891 -0.288888,-0.0891 -0.377978,0 -0.01214,0.0122 0,1.04226 0,1.13393 0,1.88988 0,3.77976 0,5.66965 0,1.76389 0,3.52777 0,5.29166 0,0.12599 0,0.25199 0,0.37798 0,0.12599 -0.08909,0.28888 0,0.37797 0.08909,0.0891 0.288888,-0.0891 0.377978,0 0.08909,0.0891 0,0.25199 0,0.37798 0,0.17822 -0.01714,1.87275 0,1.88988 0.08909,0.0891 0.288886,-0.0891 0.377976,0 0.188987,0.18899 -0.188989,0.94494 0,1.13393 0.08909,0.0891 0.288885,-0.0891 0.377976,0 0.178178,0.17818 -0.178181,0.57777 0,0.75595 0.08909,0.0891 0.288885,-0.0891 0.377976,0 0.188989,0.18899 -0.18899,0.94494 0,1.13393 0.08909,0.0891 0.288885,-0.0891 0.377976,0 0.178181,0.17818 -0.178179,0.57777 0,0.75595 0.08909,0.0891 0.288887,-0.0891 0.377975,0 0.08909,0.0891 -0.05635,0.26529 0,0.37798 0.07968,0.15937 0.298294,0.21861 0.377976,0.37798 0.05635,0.11269 -0.08909,0.28888 0,0.37797 0.178181,0.17818 0.577773,-0.17818 0.755954,0 0.178179,0.17818 -0.178181,0.57778 0,0.75595 0.178179,0.17818 0.577774,-0.17817 0.755952,0 0.08909,0.0891 -0.08909,0.28889 0,0.37798 0.08909,0.0891 0.288885,-0.0891 0.377976,0 0.08909,0.0891 -0.08909,0.28889 0,0.37798 0.178181,0.17818 0.577773,-0.17818 0.755951,0 0.08909,0.0891 -0.08909,0.28888 0,0.37797 0.178181,0.17818 0.577774,-0.17818 0.755955,0 0.08909,0.0891 -0.08909,0.28889 0,0.37798 0.188986,0.18899 0.944941,-0.18899 1.133927,0 0.08909,0.0891 -0.08909,0.28888 0,0.37798 0.08909,0.0891 0.251984,0 0.377976,0 0.629962,0 1.259922,0 1.889882,0 0.629959,0 1.259919,0 1.889881,0 0.125992,0 0.251984,0 0.377976,0 0.125992,0 0.265285,0.0563 0.377976,0 0.159369,-0.0797 0.218607,-0.2983 0.377976,-0.37798 0.112691,-0.0564 0.288888,0.0891 0.377976,0 0.08909,-0.0891 -0.08909,-0.28889 0,-0.37798 0.178181,-0.17818 0.577773,0.17818 0.755954,0 0,-1.00793 -0.125992,0.126 0.377976,-0.37797 0.08909,-0.0891 -0.08909,-0.28889 0,-0.37798 0.178178,-0.17818 0.577773,0.17818 0.755951,0 0.08909,-0.0891 -0.08909,-0.28889 0,-0.37798 0.08909,-0.0891 0.288886,0.0891 0.377976,0 0.08909,-0.0891 -0.05635,-0.26528 0,-0.37797 0.159369,-0.31874 0.596585,-0.43722 0.755952,-0.75595 0.05635,-0.11269 -0.08909,-0.28889 0,-0.37798 0.08909,-0.0891 0.288888,0.0891 0.377978,0 0.08909,-0.0891 -0.08909,-0.28889 0,-0.37798 0.08909,-0.0891 0.288885,0.0891 0.377976,0 0.178178,-0.17818 -0.112691,-0.53057 0,-0.75595 0.07968,-0.15937 0.298291,-0.21861 0.377976,-0.37798 0.05634,-0.11269 -0.05635,-0.26528 0,-0.37797 0.07968,-0.15937 0.298291,-0.21861 0.377975,-0.37798 0.112692,-0.22538 -0.112691,-0.53057 0,-0.75595 0.07969,-0.15937 0.298292,-0.21861 0.377976,-0.37798 0.112692,-0.22538 -0.112691,-0.53057 0,-0.75595 0.07968,-0.15937 0.298292,-0.21861 0.377976,-0.37797 0.151191,-0.30239 -0.151191,-0.83155 0,-1.13393 0.07968,-0.15937 0.298294,-0.21861 0.377976,-0.37798 0.05752,-0.11503 0,-0.9637 0,-1.13393 0,-0.88194 0,-1.76389 0,-2.64583 0,-0.12599 0,-0.25198 0,-0.37798 0,-0.12599 -0.05634,-0.26528 0,-0.37797 0.07968,-0.15937 0.298294,-0.21861 0.377978,-0.37798 0.05634,-0.11269 0,-0.25198 0,-0.37798 0,-0.12599 0,-0.25198 0,-0.37797 0,-0.62996 0,-1.25992 0,-1.88988 0,-1.00794 0,-2.01588 0,-3.02381 0,-0.17023 -0.05752,-1.0189 0,-1.13393 0.07968,-0.15937 0.298292,-0.21861 0.377976,-0.37798 0.05752,-0.11503 0,-0.9637 0,-1.13393 0,-1.00793 0,-2.01587 0,-3.02381 0,-0.1388 -0.01521,-1.49669 0,-1.5119 0.503968,-0.50397 0.377976,0.62996 0.377976,-0.37798 0,-0.0917 -0.01214,-1.12177 0,-1.13392 0.01214,-0.0121 1.04226,0 1.133927,0 0.125992,0 0.288888,-0.0891 0.377976,0 0.08909,0.0891 -0.08909,0.28888 0,0.37797 0.178181,0.17818 0.577773,-0.17818 0.755954,0 0.08909,0.0891 -0.08909,0.28889 0,0.37798 0.08909,0.0891 0.251984,0 0.377976,0 0,0.12599 -0.08909,0.28888 0,0.37797 0.08909,0.0891 0.288886,-0.0891 0.377976,0 0.08909,0.0891 -0.08909,0.28889 0,0.37798 0.08909,0.0891 0.288885,-0.0891 0.377976,0 0.08909,0.0891 -0.08909,0.28889 0,0.37798 0.178181,0.17818 0.577773,-0.17818 0.755952,0 0.08909,0.0891 -0.08909,0.28888 0,0.37797 0.08909,0.0891 0.288887,-0.0891 0.377978,0 0.08909,0.0891 -0.08909,0.28889 0,0.37798 0.08909,0.0891 0.288885,-0.0891 0.377976,0 0.08909,0.0891 -0.08909,0.28888 0,0.37797 0.08909,0.0891 0.288886,-0.0891 0.377976,0 0.0891,0.0891 -0.0891,0.28889 0,0.37798 0.0891,0.0891 0.28888,-0.0891 0.37798,0 0.0891,0.0891 -0.0563,0.26529 0,0.37798 0.0797,0.15936 0.29829,0.21861 0.37797,0.37797 0.11269,0.22538 -0.11269,0.53057 0,0.75596 0.0797,0.15936 0.29829,0.2186 0.37798,0.37797 0.11269,0.22538 -0.17818,0.57777 0,0.75595 0.0891,0.0891 0.28888,-0.0891 0.37797,0 0.0891,0.0891 0,0.25199 0,0.37798 0,0.12599 0,0.25199 0,0.37798 0,1.00793 0,2.01587 0,3.02381 0,0.12599 0,0.25198 0,0.37797 0,0.12599 -0.0891,0.28889 0,0.37798 0.0891,0.0891 0.28889,-0.0891 0.37798,0 0.0891,0.0891 0,0.25198 0,0.37797 0,0.62996 0,1.25993 0,1.88989 0,0.12599 -0.0891,0.28888 0,0.37797 0.0891,0.0891 0.28889,-0.0891 0.37798,0 0.11704,0.11704 -0.11704,1.77284 0,1.88988 0.0891,0.0891 0.28888,-0.0891 0.37797,0 0.0891,0.0891 0,0.25199 0,0.37798 0,0.12599 0,0.25198 0,0.37797 0,0.13881 -0.0152,1.4967 0,1.51191 0.0891,0.0891 0.28889,-0.0891 0.37798,0 0.17818,0.17818 -0.11269,0.53057 0,0.75595 0.0797,0.15937 0.29829,0.21861 0.37797,0.37798 0.0749,0.14986 -0.0773,1.05665 0,1.13393 0.0891,0.0891 0.28889,-0.0891 0.37798,0 0.17818,0.17818 -0.17818,0.57777 0,0.75595 0.0891,0.0891 0.28889,-0.0891 0.37798,0 0.0891,0.0891 -0.0564,0.26528 0,0.37798 0.0797,0.15936 0.29829,0.2186 0.37797,0.37797 0.11269,0.22538 -0.17818,0.57777 0,0.75595 0.0891,0.0891 0.28889,-0.0891 0.37798,0 0.0891,0.0891 -0.0564,0.26529 0,0.37798 0.0797,0.15937 0.29829,0.21861 0.37798,0.37798 0.0563,0.11269 -0.0891,0.28888 0,0.37797 0.0891,0.0891 0.28888,-0.0891 0.37797,0 0.0891,0.0891 -0.0891,0.28889 0,0.37798 0.0891,0.0891 0.28889,-0.0891 0.37798,0 0.0891,0.0891 -0.0563,0.26528 0,0.37797 0.0797,0.15937 0.29829,0.21861 0.37797,0.37798 0.0563,0.11269 -0.0891,0.28889 0,0.37798 0.17818,0.17818 0.57778,-0.17818 0.75596,0 0.17818,0.17818 -0.17818,0.57777 0,0.75595 0.17818,0.17818 0.57777,-0.17818 0.75595,0 0.0891,0.0891 -0.0891,0.28889 0,0.37798 0.0891,0.0891 0.28888,-0.0891 0.37798,0 0.0891,0.0891 -0.0891,0.28888 0,0.37797 0.0891,0.0891 0.28888,-0.0891 0.37797,0 0.0891,0.0891 -0.0891,0.28889 0,0.37798 0.17818,0.17818 0.57777,-0.17818 0.75595,0 0.0891,0.0891 -0.0891,0.28888 0,0.37797 0.17818,0.17818 0.57778,-0.17817 0.75596,0 0.0891,0.0891 -0.0891,0.28889 0,0.37798 0.17818,0.17818 0.57777,-0.17818 0.75595,0 0.0891,0.0891 -0.0891,0.28889 0,0.37798 0.17818,0.17818 0.53057,-0.11269 0.75595,0 0.15937,0.0797 0.21861,0.29829 0.37798,0.37797 0.22538,0.11269 0.57777,-0.17818 0.75595,0 0.0891,0.0891 -0.0891,0.28889 0,0.37798 0.0891,0.0891 0.25198,0 0.37798,0 0.12599,0 0.25198,0 0.37797,0 1.13393,0 2.26786,0 3.40179,0 0.12599,0 0.25198,0 0.37797,0 0.12599,0 0.28889,0.0891 0.37798,0 0.0891,-0.0891 -0.0891,-0.28889 0,-0.37798 0.17818,-0.17818 0.57777,0.17818 0.75595,0 0.0891,-0.0891 -0.0891,-0.28888 0,-0.37797 0.17818,-0.17818 0.57778,0.17818 0.75595,0 0.0891,-0.0891 -0.0891,-0.28889 0,-0.37798 0.17819,-0.17818 0.57778,0.17818 0.75596,0 0.0891,-0.0891 -0.0891,-0.28889 0,-0.37798 0.0891,-0.0891 0.28888,0.0891 0.37797,0 0.0891,-0.0891 -0.0891,-0.28888 0,-0.37797 0.0891,-0.0891 0.28889,0.0891 0.37798,0 0.0891,-0.0891 -0.0891,-0.28889 0,-0.37798 0.0891,-0.0891 0.28889,0.0891 0.37798,0 0.0891,-0.0891 -0.0891,-0.28888 0,-0.37797 0.0891,-0.0891 0.28888,0.0891 0.37797,0 0.17818,-0.17818 -0.17818,-0.57778 0,-0.75596 0.0891,-0.0891 0.28889,0.0891 0.37798,0 0.17818,-0.17818 -0.11269,-0.53057 0,-0.75595 0.0797,-0.15937 0.29829,-0.21861 0.37797,-0.37798 0.0575,-0.11503 0,-0.9637 0,-1.13392 0,-0.75596 0,-1.51191 0,-2.26786 0,-2.64583 0,-5.29167 0,-7.9375 0,-1.13393 0,-2.26786 0,-3.40179 0,-0.12599 0,-0.25198 0,-0.37797 0,-0.126 0.0891,-0.28889 0,-0.37798 -0.0891,-0.0891 -0.28888,0.0891 -0.37797,0 -0.091,-0.0909 0.091,-1.42095 0,-1.5119 -0.0891,-0.0891 -0.28889,0.0891 -0.37798,0 -0.0773,-0.0773 0.0749,-0.98407 0,-1.13393 -0.0797,-0.15937 -0.29829,-0.21861 -0.37797,-0.37798 -0.1127,-0.22538 0.17817,-0.57777 0,-0.75595 -0.0891,-0.0891 -0.28889,0.0891 -0.37798,0 -0.17818,-0.17818 0.17818,-0.57777 0,-0.75595 -0.50397,-0.50397 -0.37798,0.62996 -0.37798,-0.37798 0,-0.12599 0,-0.25198 0,-0.37798 0,-0.12599 0.0891,-0.28888 0,-0.37797 -0.0891,-0.0891 -0.28888,0.0891 -0.37797,0 -0.17818,-0.17818 0.17818,-0.57777 0,-0.75595 -0.0891,-0.0891 -0.28889,0.0891 -0.37798,0 -0.17818,-0.17818 0.11269,-0.53057 0,-0.75596 -0.0797,-0.15936 -0.29829,-0.2186 -0.37798,-0.37797 -0.0563,-0.11269 0.0563,-0.26529 0,-0.37798 -0.15936,-0.31874 -0.59658,-0.43721 -0.75595,-0.75595 -0.11269,-0.22538 0.17818,-0.57777 0,-0.75595 -0.0891,-0.0891 -0.28889,0.0891 -0.37797,0 -0.0891,-0.0891 0,-0.25199 0,-0.37798 0,-0.12599 -0.0891,-0.28889 0,-0.37798 0.0891,-0.0891 0.28888,-0.0891 0.37797,0 0.0891,0.0891 -0.0891,0.28889 0,0.37798 0.17818,0.17818 0.57778,-0.17818 0.75595,0 0.0891,0.0891 -0.0891,0.28889 0,0.37798 0.091,0.0909 1.42096,-0.091 1.51191,0 0.0891,0.0891 -0.0891,0.28888 0,0.37797 0.0891,0.0891 0.26528,-0.0563 0.37798,0 0.15937,0.0797 0.2186,0.29829 0.37797,0.37798 0.14987,0.0749 1.05666,-0.0773 1.13393,0 0.0891,0.0891 -0.0891,0.28888 0,0.37798 0.17818,0.17818 0.53057,-0.1127 0.75595,0 0.15937,0.0797 0.21861,0.29829 0.37798,0.37797 0.22538,0.11269 0.57777,-0.17818 0.75595,0 0.0891,0.0891 -0.0891,0.28889 0,0.37798 0.0773,0.0773 0.98407,-0.0749 1.13393,0 0.15937,0.0797 0.21861,0.29829 0.37798,0.37797 0.11269,0.0563 0.26528,-0.0563 0.37797,0 0.15937,0.0797 0.21861,0.2983 0.37798,0.37798 0.14986,0.0749 1.05665,-0.0773 1.13393,0 0.0891,0.0891 -0.0891,0.28889 0,0.37798 0.0891,0.0891 0.26528,-0.0564 0.37797,0 0.15937,0.0797 0.21861,0.29829 0.37798,0.37797 0.11269,0.0564 0.26528,-0.0563 0.37798,0 0.15937,0.0797 0.2186,0.29829 0.37797,0.37798 0.11269,0.0563 0.26529,-0.0564 0.37798,0 0.15937,0.0797 0.2186,0.29829 0.37797,0.37797 0.11269,0.0563 0.28889,-0.0891 0.37798,0 0.0891,0.0891 -0.0891,0.28889 0,0.37798 0.17818,0.17818 0.57777,-0.17818 0.75595,0 0.0891,0.0891 -0.0891,0.28889 0,0.37798 0.0891,0.0891 0.28889,-0.0891 0.37798,0 0.0891,0.0891 -0.0891,0.28888 0,0.37797 0.0891,0.0891 0.28888,-0.0891 0.37797,0 0.0891,0.0891 -0.0891,0.28889 0,0.37798 0.0891,0.0891 0.26529,-0.0564 0.37798,0 0.17503,0.0875 1.2896,1.2896 1.51191,1.5119 0.12599,0.126 0.2186,0.2983 0.37797,0.37798 0.11269,0.0563 0.26529,-0.0563 0.37798,0 1.57304,0.78652 -0.40407,-0.0261 0.37797,0.75595 0.17819,0.17818 0.57778,-0.17818 0.75596,0 0.0891,0.0891 -0.0891,0.28889 0,0.37798 1.00793,0 -0.126,-0.12599 0.37797,0.37797 0.0891,0.0891 0.28889,-0.0891 0.37798,0 0.0891,0.0891 -0.0891,0.28889 0,0.37798 0.17818,0.17818 0.57777,-0.17818 0.75595,0 0.0891,0.0891 0,0.25198 0,0.37798 0.12599,0 0.28889,-0.0891 0.37798,0 0.0891,0.0891 -0.0891,0.28888 0,0.37797 0.18899,0.18899 0.94494,-0.18898 1.13393,0 0.0891,0.0891 -0.0891,0.28889 0,0.37798 0.0121,0.0122 1.04225,0 1.13392,0 1.00794,0 -0.12599,-0.12599 0.37798,0.37798 0.0891,0.0891 0.25198,0 0.37798,0 0.12599,0 0.28888,0.0891 0.37797,0 0.0891,-0.0891 -0.0891,-0.28889 0,-0.37798 0.17818,-0.17818 0.57778,0.17818 0.75596,0 0.0891,-0.0891 0,-0.25198 0,-0.37798 0.12599,0 0.28888,0.0891 0.37797,0 0.0891,-0.0891 -0.0891,-0.28888 0,-0.37797 0.0891,-0.0891 0.28889,0.0891 0.37798,0 0.18899,-0.18899 -0.18899,-0.94494 0,-1.13393 0.0891,-0.0891 0.28888,0.0891 0.37797,0 0.17819,-0.17818 -0.11269,-0.53057 0,-0.75595 0.0797,-0.15937 0.2983,-0.21861 0.37798,-0.37798 0.11878,-0.23757 -0.11878,-1.27434 0,-1.5119 0.0797,-0.15937 0.29829,-0.21861 0.37798,-0.37798 0.0749,-0.14987 -0.0773,-1.05666 0,-1.13393 0.0891,-0.0891 0.28888,0.0891 0.37797,0 0.17818,-0.17818 -0.11269,-0.53057 0,-0.75595 0.0797,-0.15937 0.2983,-0.21861 0.37798,-0.37798 0.13054,-0.26108 -0.13268,-1.7572 0,-1.88988 0.0891,-0.0891 0.28889,0.0891 0.37798,0 0.0891,-0.0891 0,-0.25198 0,-0.37797 0,-0.62996 0,-1.25992 0,-1.88989 0,-1.00793 0,-2.01587 0,-3.02381 0,-0.12599 0,-0.25198 0,-0.37797 0,-0.12599 0.0891,-0.28889 0,-0.37798 -0.0891,-0.0891 -0.28889,0.0891 -0.37798,0 -0.10342,-0.10342 0.10252,-1.30685 0,-1.5119 -0.0797,-0.15937 -0.29829,-0.21861 -0.37798,-0.37798 -0.11269,-0.22538 0.17818,-0.57777 0,-0.75595 -0.0891,-0.0891 -0.28888,0.0891 -0.37797,0 -0.17818,-0.17818 0.17818,-0.57777 0,-0.75595 -0.0891,-0.0891 -0.28889,0.0891 -0.37798,0 -0.18899,-0.18899 0.18899,-0.94494 0,-1.13393 -0.0891,-0.0891 -0.28889,0.0891 -0.37798,0 -0.0891,-0.0891 0.0891,-0.28889 0,-0.37798 -0.0891,-0.0891 -0.28888,0.0891 -0.37797,0 -0.17818,-0.17818 0.11269,-0.53057 0,-0.75595 -0.78653,-1.57305 0.0261,0.40407 -0.75595,-0.37798 -0.0891,-0.0891 0.0563,-0.26528 0,-0.37797 -0.0797,-0.15937 -0.29829,-0.21861 -0.37798,-0.37798 -0.0563,-0.11269 0.0891,-0.28889 0,-0.37798 -0.0891,-0.0891 -0.28889,0.0891 -0.37798,0 -0.0891,-0.0891 0.0891,-0.28888 0,-0.37797 -0.0891,-0.0891 -0.28888,0.0891 -0.37797,0 -0.0891,-0.0891 0.0563,-0.26529 0,-0.37798 -0.0797,-0.15937 -0.25199,-0.25198 -0.37798,-0.37797 -0.12599,-0.126 -0.21861,-0.29829 -0.37798,-0.37798 -0.11269,-0.0563 -0.28888,0.0891 -0.37797,0 -0.0891,-0.0891 0.0891,-0.28889 0,-0.37798 -0.0891,-0.0891 -0.28889,0.0891 -0.37798,0 -0.17818,-0.17818 0.17818,-0.57777 0,-0.75595 -0.0891,-0.0891 -0.26528,0.0564 -0.37797,0 -0.31874,-0.15937 -0.43722,-0.59658 -0.75596,-0.75595 -0.11269,-0.0564 -0.28888,0.0891 -0.37797,0 -0.0891,-0.0891 0.0563,-0.26529 0,-0.37798 -0.0362,-0.0724 -1.43956,-1.47573 -1.51191,-1.5119 -0.11269,-0.0564 -0.28888,0.0891 -0.37797,0 -0.17818,-0.17818 0.17818,-0.57778 0,-0.75595 -0.0891,-0.0891 -0.28889,0.0891 -0.37798,0 -0.0891,-0.0891 0.0891,-0.28889 0,-0.37798 -0.0891,-0.0891 -0.28889,0.0891 -0.37798,0 -0.78204,-0.78205 1.19507,0.0306 -0.37797,-0.75595 -0.11269,-0.0564 -0.28889,0.0891 -0.37798,0 -0.17818,-0.17818 0.17818,-0.57777 0,-0.75596 -0.0891,-0.0891 -0.28889,0.0891 -0.37797,0 -0.0891,-0.0891 0.0563,-0.26528 0,-0.37797 -0.0797,-0.15937 -0.29829,-0.21861 -0.37798,-0.37798 -0.0563,-0.11269 0.0891,-0.28888 0,-0.37797 -0.0891,-0.0891 -0.28889,0.0891 -0.37798,0 -0.0121,-0.0122 0,-1.04226 0,-1.13393 0,-0.126 0.0891,-0.28889 0,-0.37798 -0.0891,-0.0891 -0.28888,0.0891 -0.37797,0 -0.0378,-0.0378 -0.0378,-1.09613 0,-1.13393 0.0891,-0.0891 0.28888,0.0891 0.37797,0 0.0891,-0.0891 -0.0891,-0.28888 0,-0.37797 1.00794,0 -0.12599,0.12599 0.37798,-0.37798 0.0891,-0.0891 0.28889,0.0891 0.37798,0 0.17818,-0.17818 -0.17818,-0.57777 0,-0.75595 0.0891,-0.0891 0.28888,0.0891 0.37797,0 0.091,-0.091 -0.0909,-1.42095 0,-1.51191 0.0891,-0.0891 0.28889,0.0891 0.37798,0 0.18899,-0.18898 -0.18899,-0.94494 0,-1.13393 0.0891,-0.0891 0.28888,0.0891 0.37797,0 0.091,-0.091 -0.0909,-1.42095 0,-1.5119 0.0891,-0.0891 0.28889,0.0891 0.37798,0 0.0152,-0.0152 0,-1.3731 0,-1.5119 0,-0.13881 0.0152,-1.4967 0,-1.51191 -0.0891,-0.0891 -0.28889,0.0891 -0.37798,0 -0.18898,-0.18899 0.18899,-0.94494 0,-1.13393 -0.0891,-0.0891 -0.28888,0.0891 -0.37797,0 -0.17818,-0.17818 0.17818,-0.57777 0,-0.75595 -0.0891,-0.0891 -0.28889,0.0891 -0.37798,0 -0.17818,-0.17818 0.17818,-0.57777 0,-0.75595 -0.0891,-0.0891 -0.28889,0.0891 -0.37797,0 -0.17818,-0.17818 0.17818,-0.57777 0,-0.75596 -0.0891,-0.0891 -0.28889,0.0891 -0.37798,0 -0.17818,-0.17817 0.11269,-0.53057 0,-0.75595 -0.0797,-0.15937 -0.29829,-0.2186 -0.37798,-0.37797 -0.0563,-0.11269 0.0891,-0.28889 0,-0.37798 -0.0891,-0.0891 -0.28888,0.0891 -0.37797,0 -0.0891,-0.0891 0.0891,-0.28889 0,-0.37798 -0.0891,-0.0891 -0.28889,0.0891 -0.37798,0 -0.0891,-0.0891 -0.0247,-0.25443 0,-0.37797 0.10188,-0.5094 0.25199,-1.00795 0.37798,-1.51193"
       id="path89"
       inkscape:connector-curvature="0" />
    <path
       style="fill:#800000;stroke:#000000;stroke-width:0.26458332px;stroke-linecap:butt;stroke-linejoin:miter;stroke-opacity:1"
       d="m 63.499999,74.372025 c 0.251984,-0.377979 0.503968,-0.755955 0.755952,-1.133931 0.125992,0 0.288888,0.08909 0.377976,0 0.178181,-0.178181 -0.178179,-0.577773 0,-0.755951 0.08909,-0.08909 0.288888,0.08909 0.377978,0 0.178178,-0.178181 -0.178181,-0.577773 0,-0.755954 0.08909,-0.08909 0.288885,0.08909 0.377976,0 0.178178,-0.178179 -0.112691,-0.530569 0,-0.755952 0.07968,-0.159369 0.298291,-0.218607 0.377976,-0.377976 0.05634,-0.112691 -0.05635,-0.265284 0,-0.377976 0.07968,-0.159369 0.298291,-0.218609 0.377976,-0.377975 0.05635,-0.112692 0,-0.251984 0,-0.377979 0.125991,-0.125992 0.298291,-0.218607 0.377975,-0.377976 0.112692,-0.22538 -0.178178,-0.57777 0,-0.755951 0.08909,-0.08909 0.288888,0.08909 0.377976,0 0.178181,-0.178179 -0.178178,-0.577774 0,-0.755952 0.08909,-0.08909 0.288888,0.08909 0.377976,0 0.178181,-0.178181 -0.112689,-0.530572 0,-0.755954 0.07968,-0.159367 0.298294,-0.218607 0.377978,-0.377976 0.112689,-0.22538 -0.178181,-0.577771 0,-0.755952 0.08909,-0.08909 0.288886,0.08909 0.377976,0 0.178179,-0.178178 -0.178181,-0.577773 0,-0.755951 0.08909,-0.08909 0.288885,0.08909 0.377976,0 0.178178,-0.178181 -0.112691,-0.530572 0,-0.755954 0.07968,-0.159367 0.298291,-0.218607 0.377976,-0.377976 0.05634,-0.112689 -0.05635,-0.265285 0,-0.377976 0.07968,-0.159369 0.298291,-0.218607 0.377976,-0.377976 0.07493,-0.149865 -0.07727,-1.056656 0,-1.133927 0.08909,-0.08909 0.288888,0.08909 0.377975,0 0.178181,-0.178181 -0.178178,-0.577774 0,-0.755955 0.08909,-0.08909 0.288888,0.08909 0.377976,0 0.178181,-0.178178 -0.112688,-0.530569 0,-0.755951 0.07968,-0.159369 0.298294,-0.218607 0.377979,-0.377976 0.112688,-0.225383 -0.178181,-0.577773 0,-0.755952 0.08909,-0.08909 0.288885,0.08909 0.377975,0 0.08909,-0.08909 -0.05634,-0.265287 0,-0.377978 0.07969,-0.159367 0.298292,-0.218607 0.377976,-0.377976 0.07493,-0.149863 -0.07727,-1.056656 0,-1.133927 0.08909,-0.08909 0.288886,0.08909 0.377976,0 0.178181,-0.178181 -0.112691,-0.530572 0,-0.755952 0.07968,-0.159369 0.298291,-0.218609 0.377976,-0.377978 0.05635,-0.112689 -0.05635,-0.265285 0,-0.377976 0.467066,-0.93413 0.377976,0.130469 0.377976,-0.755952 0,-0.88642 -0.08909,0.178181 0.377976,-0.755951 0.05634,-0.112692 -0.05634,-0.265288 0,-0.377976 0.07968,-0.159369 0.298293,-0.21861 0.377978,-0.377979 0.112689,-0.22538 -0.112691,-0.530569 0,-0.755951 0.07968,-0.159369 0.298291,-0.218607 0.377976,-0.377976 0.112688,-0.225383 -0.178181,-0.577773 0,-0.755952 0.08909,-0.08909 0.288885,0.08909 0.377976,0 0.178178,-0.178181 -0.112692,-0.530571 0,-0.755954 0.07968,-0.159366 0.298291,-0.218607 0.377975,-0.377976 0.112692,-0.22538 -0.178178,-0.57777 0,-0.755951 0.08909,-0.08909 0.288886,0.08909 0.377976,0 0.178181,-0.178179 -0.178178,-0.577774 0,-0.755952 0.08909,-0.08909 0.288888,0.08909 0.377976,0 0.178181,-0.178181 -0.112689,-0.530572 0,-0.755954 0.07968,-0.159367 0.298294,-0.218607 0.377976,-0.377976 0.05635,-0.112689 -0.05634,-0.265285 0,-0.377976 0.07968,-0.159369 0.298294,-0.218607 0.377978,-0.377976 0.05634,-0.112691 -0.05634,-0.265284 0,-0.377976 0.07969,-0.159369 0.298292,-0.218606 0.377976,-0.377975 0.05635,-0.112692 -0.05635,-0.265287 0,-0.377976 0.07968,-0.159369 0.298291,-0.218609 0.377976,-0.377979 0.05635,-0.112688 -0.05635,-0.265284 0,-0.377975 0.07968,-0.15937 0.298291,-0.218607 0.377976,-0.377976 0.112691,-0.22538 -0.178179,-0.577773 0,-0.755952 0.08909,-0.08909 0.288885,0.08909 0.377976,0 0.178181,-0.178181 -0.112692,-0.530571 0,-0.755951 0.07968,-0.15937 0.298291,-0.21861 0.377975,-0.377979 0.05635,-0.112689 -0.08909,-0.288885 0,-0.377976 0.08909,-0.08909 0.288888,0.08909 0.377976,0 0.178181,-0.178178 -0.112689,-0.530569 0,-0.755951 0.07968,-0.159369 0.298294,-0.218607 0.377979,-0.377976 0.05634,-0.112691 -0.05635,-0.265285 0,-0.377976 0.07968,-0.159369 0.298291,-0.218609 0.377975,-0.377976 0.112692,-0.225382 -0.178181,-0.577773 0,-0.755954 0.08909,-0.08909 0.288886,0.08909 0.377976,0 0.178179,-0.178178 -0.178181,-0.577771 0,-0.755952 0.08909,-0.08909 0.288886,0.08909 0.377976,0 0.178181,-0.178178 -0.178178,-0.577773 0,-0.755951 0.08909,-0.08909 0.288885,0.08909 0.377976,0 0.188989,-0.188989 -0.188987,-0.944941 0,-1.13393 0.08909,-0.08909 0.288888,0.08909 0.377976,0 0.178181,-0.178179 -0.178179,-0.577771 0,-0.755952 0.08909,-0.08909 0.288888,0.08909 0.377975,0 0.178181,-0.178178 -0.178178,-0.577773 0,-0.755952 0.08909,-0.08909 0.288888,0.08909 0.377979,0 0.188986,-0.188989 -0.188989,-0.94494 0,-1.13393 0.08909,-0.08909 0.288885,0.08909 0.377976,0 0.08909,-0.08909 -0.05635,-0.265284 0,-0.377975 0.07968,-0.15937 0.298291,-0.218607 0.377975,-0.377976 0.112692,-0.225383 -0.178181,-0.577773 0,-0.755952 0.08909,-0.08909 0.288886,0.08909 0.377976,0 0.178181,-0.178181 -0.178178,-0.577773 0,-0.755954 0.08909,-0.08909 0.288886,0.08909 0.377976,0 0.252738,-0.252735 -0.252735,-0.503214 0,-0.755952 1.007938,0 -0.125992,0.125992 0.377976,-0.377975 0.08909,-0.08909 0.288888,0.08909 0.377976,0 0.178181,-0.178179 -0.178179,-0.577774 0,-0.755952 0.08909,-0.08909 0.288888,0.08909 0.377978,0 0.178179,-0.178181 -0.178181,-0.577773 0,-0.755954 0.08909,-0.08909 0.288885,0.08909 0.377976,0 0.08909,-0.08909 -0.08909,-0.288886 0,-0.377976 0.08909,-0.08909 0.288885,0.08909 0.377976,0 0.178178,-0.178179 -0.178181,-0.577771 0,-0.755952 0.08909,-0.08909 0.288885,0.08909 0.377976,0 0.178181,-0.178178 -0.178179,-0.577773 0,-0.755951 0.08909,-0.08909 0.288885,0.08909 0.377975,0 0.08909,-0.08909 -0.08909,-0.288888 0,-0.377976 0.08909,-0.08909 0.288888,0.08909 0.377976,0 0.178181,-0.178181 -0.178178,-0.577773 0,-0.755954 0.178181,-0.178179 0.577773,0.178181 0.755954,0 0.08909,-0.08909 0,-0.251984 0,-0.377976 0.125992,0 0.288886,0.08909 0.377976,0 0.08909,-0.08909 -0.08909,-0.288886 0,-0.377976 0.08909,-0.08909 0.288886,0.08909 0.377976,0 0.08909,-0.08909 -0.08909,-0.288886 0,-0.377976 0.08909,-0.08909 0.288885,0.08909 0.377976,0 0.08909,-0.08909 -0.08909,-0.288887 0,-0.377977 0.08909,-0.08909 0.288885,0.08909 0.377976,0 0.08909,-0.08909 -0.08909,-0.288886 0,-0.377976 0.08909,-0.08909 0.288888,0.08909 0.377976,0 0.08909,-0.08909 -0.08909,-0.288886 0,-0.377976 0.08909,-0.08909 0.288887,0.08909 0.377975,0 0.08909,-0.08909 -0.08909,-0.288886 0,-0.377976 0.08909,-0.08909 0.377979,-0.125992 0.377979,0 0,0.125992 -0.377979,0.125992 -0.377979,0 0,-0.457675 1.058802,-0.453106 1.13393,-0.377976 0.08909,0.08909 -0.08909,0.288886 0,0.377976 0.178179,0.17818 0.577774,-0.17818 0.755952,0 0.08909,0.08909 -0.08909,0.288886 0,0.377976 0.09095,0.09095 1.420953,-0.09095 1.511906,0 0.08909,0.08909 -0.08909,0.288886 0,0.377976 0.178178,0.17818 0.530569,-0.11269 0.755951,0 0.15937,0.07969 0.218607,0.298292 0.377976,0.377976 0.205047,0.102524 1.408483,-0.103422 1.511906,0 0.08909,0.08909 -0.08909,0.288887 0,0.377977 0.188987,0.188988 0.944941,-0.188988 1.133928,0 0.08909,0.08909 -0.08909,0.288886 0,0.377976 0.08909,0.08909 0.265287,-0.05635 0.377975,0 0.15937,0.07968 0.21861,0.298292 0.377976,0.377976 0.225383,0.112691 0.577773,-0.178179 0.755954,0 0.08909,0.08909 -0.08909,0.288888 0,0.377976 0.08909,0.08909 0.288886,-0.08909 0.377976,0 0.08909,0.08909 -0.08909,0.288887 0,0.377975 0.178179,0.178181 0.577774,-0.178178 0.755952,0 0.08909,0.08909 -0.08909,0.288888 0,0.377979 0.08909,0.08909 0.288888,-0.08909 0.377976,0 0.08909,0.08909 -0.08909,0.288885 0,0.377976 0.178181,0.178178 0.577773,-0.178181 0.755954,0 0.08909,0.08909 -0.08909,0.288885 0,0.377975 0.178178,0.178179 0.577771,-0.178181 0.755952,0 0.0891,0.08909 -0.0891,0.288886 0,0.377976 0.0891,0.08909 0.28888,-0.08909 0.37798,0 0.0891,0.08909 -0.0891,0.288886 0,0.377976 0.0891,0.08909 0.28888,-0.08909 0.37797,0 0.0891,0.08909 -0.0891,0.288888 0,0.377976 0.0891,0.08909 0.25199,0 0.37798,0 0,0.125992 -0.0891,0.288888 0,0.377976 0.0891,0.08909 0.28888,-0.08909 0.37797,0 0.0891,0.08909 -0.0563,0.265287 0,0.377978 0.15937,0.318736 0.59659,0.437213 0.75596,0.755952 0.0563,0.112691 -0.0891,0.288885 0,0.377976 0.0891,0.08909 0.28888,-0.08909 0.37797,0 0.0891,0.08909 -0.0891,0.288885 0,0.377975 0.0891,0.08909 0.28889,-0.08909 0.37798,0 0.0891,0.08909 -0.0891,0.288888 0,0.377976 0.0891,0.08909 0.28888,-0.08909 0.37797,0 0.0891,0.08909 -0.0891,0.288888 0,0.377976 0.0891,0.08909 0.28889,-0.08909 0.37798,0 0.0891,0.08909 -0.0891,0.288888 0,0.377978 0.0891,0.08909 0.28889,-0.08909 0.37798,0 0.0891,0.08909 -0.0891,0.288886 0,0.377976 0.0891,0.08909 0.28888,-0.08909 0.37797,0 0,1.007936 -0.12599,-0.125992 0.37798,0.377976 0.0891,0.08909 -0.0891,0.288885 0,0.377976 0.0891,0.08909 0.28889,-0.08909 0.37798,0 0.17817,0.178181 -0.17818,0.577773 0,0.755951 0.0891,0.08909 0.28888,-0.08909 0.37797,0 0.0891,0.08909 -0.0891,0.288888 0,0.377976 0.0891,0.08909 0.28889,-0.08909 0.37798,0 0.0891,0.08909 -0.0891,0.288888 0,0.377979 0.0891,0.08909 0.28889,-0.08909 0.37797,0 0.0891,0.08909 -0.0891,0.288885 0,0.377975 0.0891,0.08909 0.28889,-0.08909 0.37798,0 0.0891,0.08909 -0.0563,0.265285 0,0.377976 0.0797,0.159369 0.29829,0.218607 0.37798,0.377976 0.0563,0.112691 -0.0891,0.288885 0,0.377976 0.0891,0.08909 0.28888,-0.08909 0.37797,0 0,1.007938 -0.12599,-0.125992 0.37798,0.377976 0.0891,0.08909 -0.0891,0.288888 0,0.377976 0.0891,0.08909 0.28888,-0.08909 0.37798,0 0.0891,0.08909 -0.0891,0.288887 0,0.377978 0.0891,0.08909 0.28888,-0.08909 0.37797,0 0.0891,0.08909 -0.0891,0.288885 0,0.377976 0.0891,0.08909 0.28889,-0.08909 0.37798,0 0.17818,0.178178 -0.17818,0.577773 0,0.755951 0.0891,0.08909 0.28888,-0.08909 0.37797,0 0.0891,0.08909 -0.0891,0.288886 0,0.377976 0.0891,0.08909 0.28889,-0.08909 0.37798,0 0.0891,0.08909 -0.0563,0.265287 0,0.377976 0.0797,0.159369 0.29829,0.218609 0.37798,0.377976 0.0563,0.112691 -0.0891,0.288888 0,0.377978 0.0891,0.08909 0.28888,-0.08909 0.37797,0 0.0891,0.08909 -0.0891,0.288886 0,0.377976 0.0891,0.08909 0.28889,-0.08909 0.37798,0 0.0891,0.08909 -0.0563,0.265285 0,0.377976 0.0797,0.159369 0.29829,0.218607 0.37797,0.377976 0.0563,0.112691 -0.0891,0.288885 0,0.377976 0.0891,0.08909 0.28889,-0.08909 0.37798,0 0.17818,0.178181 -0.17818,0.577773 0,0.755951 0.0891,0.08909 0.28889,-0.08909 0.37798,0 0.0891,0.08909 -0.0891,0.288888 0,0.377979 0.0891,0.08909 0.28888,-0.08909 0.37797,0 0.0891,0.08909 -0.0891,0.288885 0,0.377975 0.0891,0.08909 0.28889,-0.08909 0.37798,0 0.17818,0.178179 -0.17818,0.577774 0,0.755952 0.78205,0.782047 -0.0306,-1.19507 0.75595,0.377976 0.0563,0.112691 -0.0891,0.288888 0,0.377976 0.0891,0.08909 0.28889,-0.08909 0.37798,0 0.0891,0.08909 -0.0563,0.265287 0,0.377975 0.0797,0.15937 0.29829,0.21861 0.37797,0.377979 0.0563,0.112689 -0.0891,0.288885 0,0.377976 0.0891,0.08909 0.28889,-0.08909 0.37798,0 0.0891,0.08909 -0.0891,0.288885 0,0.377975 0.0891,0.08909 0.28889,-0.08909 0.37798,0 0.0891,0.08909 -0.0891,0.288886 0,0.377976 0.0891,0.08909 0.28888,-0.08909 0.37797,0 0.17818,0.178181 -0.17818,0.577774 0,0.755952 0.0891,0.08909 0.28889,-0.08909 0.37798,0 0.0891,0.08909 -0.0891,0.288888 0,0.377976 0.0891,0.08909 0.26528,-0.05634 0.37798,0 1.57304,0.786524 -0.40407,-0.02609 0.37797,0.755954 0.0891,0.08909 0.28889,-0.08909 0.37798,0 0.0891,0.08909 -0.0891,0.288885 0,0.377976 0.0891,0.08909 0.28888,-0.08909 0.37797,0 0.17818,0.178178 -0.17818,0.577773 0,0.755951 0.0891,0.08909 0.28889,-0.08909 0.37798,0 0.0891,0.08909 -0.0891,0.288888 0,0.377976 0.0891,0.08909 0.28889,-0.08909 0.37798,0 0.0891,0.08909 -0.0891,0.288888 0,0.377976 0.0891,0.08909 0.28888,-0.08909 0.37797,0 0.0891,0.08909 -0.0891,0.288888 0,0.377978 0.0891,0.08909 0.28889,-0.08909 0.37798,0 0.0891,0.08909 -0.0563,0.265285 0,0.377976 0.0797,0.159369 0.29829,0.218607 0.37797,0.377976 0.0563,0.112691 -0.0891,0.288885 0,0.377976 0.0891,0.08909 0.25199,0 0.37798,0 0,0.125992 -0.0891,0.288885 0,0.377976 0.0891,0.08909 0.28889,-0.08909 0.37798,0 0.0891,0.08909 -0.0891,0.288888 0,0.377976 0.0891,0.08909 0.28888,-0.08909 0.37797,0 0.0891,0.08909 -0.0563,0.265287 0,0.377975 0.0797,0.159369 0.2983,0.21861 0.37798,0.377979 0.0563,0.112688 -0.0891,0.288885 0,0.377976 0.0891,0.08909 0.28889,-0.08909 0.37798,0 0.0891,0.08909 -0.0891,0.288885 0,0.377975 0.0891,0.08909 0.28888,-0.08909 0.37797,0 0.0891,0.08909 -0.0891,0.288886 0,0.377976 0.0891,0.08909 0.28889,-0.08909 0.37798,0 0.0891,0.08909 -0.0563,0.265285 0,0.377976 0.0797,0.159369 0.29829,0.218607 0.37797,0.377976 0.0563,0.112691 -0.0891,0.288888 0,0.377976 0.0891,0.08909 0.28889,-0.08909 0.37798,0 0.0891,0.08909 0,0.251986 0,0.377978 0.12599,0 0.28889,-0.08909 0.37798,0 0.37722,0.377227 -0.37723,0.378725 0,0.755952 0.0891,0.08909 0.28888,-0.08909 0.37797,0 0.0891,0.08909 -0.0891,0.288885 0,0.377976 0.0891,0.08909 0.28889,-0.08909 0.37798,0 0.17818,0.17818 -0.17818,0.577773 0,0.755951 0.0891,0.08909 0.28888,-0.08909 0.37798,0 0.0891,0.08909 -0.0891,0.288888 0,0.377976 0.0891,0.08909 0.28888,-0.08909 0.37797,0 0.0891,0.08909 -0.0891,0.288888 0,0.377978 0.0891,0.08909 0.28889,-0.08909 0.37798,0 0.17818,0.178179 -0.17818,0.577771 0,0.755952 0.0891,0.08909 0.28888,-0.08909 0.37797,0 0.0891,0.08909 -0.0891,0.288885 0,0.377976 0.0891,0.08909 0.28889,-0.08909 0.37798,0 0.0891,0.08909 -0.0891,0.288885 0,0.377976 0.0891,0.08909 0.28889,-0.08909 0.37798,0 0.0891,0.08909 -0.0563,0.265287 0,0.377975 0.0797,0.15937 0.29829,0.21861 0.37797,0.377976 0.0563,0.112692 -0.0891,0.288888 0,0.377979 0.0891,0.08909 0.28889,-0.08909 0.37798,0 0.17818,0.178178 -0.17818,0.57777 0,0.755951 0.0891,0.08909 0.28888,-0.08909 0.37797,0 0.0891,0.08909 -0.0563,0.265285 0,0.377976 0.0797,0.159369 0.2983,0.218607 0.37798,0.377976 0.0563,0.112691 -0.0891,0.288888 0,0.377976 0.0891,0.08909 0.28889,-0.08909 0.37798,0 0.17818,0.178181 -0.11269,0.530571 0,0.755954 0.0797,0.159366 0.29829,0.218607 0.37797,0.377976 0.11269,0.22538 -0.17818,0.577773 0,0.755951 0.0891,0.08909 0.28889,-0.08909 0.37798,0 0.0909,0.09095 -0.0909,1.420953 0,1.511906 0.0891,0.08909 0.28889,-0.08909 0.37798,0 0.0909,0.09095 -0.091,1.42095 0,1.511904 0.0891,0.08909 0.28888,-0.08909 0.37797,0 0.18899,0.188989 -0.18899,0.94494 0,1.13393 0.0891,0.08909 0.28889,-0.08909 0.37798,0 0.17818,0.178178 -0.17818,0.57777 0,0.755951 0.0891,0.08909 0.28889,-0.08909 0.37797,0 0.18899,0.188987 -0.18898,0.944941 0,1.133928 0.0891,0.08909 0.28889,-0.08909 0.37798,0 0.17818,0.178181 -0.17818,0.577773 0,0.755954 0.0891,0.08909 0.28889,-0.08909 0.37798,0 0.17818,0.178178 -0.17818,0.57777 0,0.755951 0.0891,0.08909 0.28888,-0.08909 0.37797,0 0.17818,0.178179 -0.17818,0.577774 0,0.755952 0.0891,0.08909 0.28889,-0.08909 0.37798,0 0.17818,0.178181 -0.25198,0.755952 0,0.755952 0.39842,2e-6 0.75595,-0.251982 1.13393,-0.377973"
       id="path91"
       inkscape:connector-curvature="0" />
  </g>
</svg>
