<?xml version="1.0" encoding="UTF-8" standalone="no"?>
<!-- Created with Inkscape (http://www.inkscape.org/) -->

<svg
   xmlns:dc="http://purl.org/dc/elements/1.1/"
   xmlns:cc="http://creativecommons.org/ns#"
   xmlns:rdf="http://www.w3.org/1999/02/22-rdf-syntax-ns#"
   xmlns:svg="http://www.w3.org/2000/svg"
   xmlns="http://www.w3.org/2000/svg"
   xmlns:sodipodi="http://sodipodi.sourceforge.net/DTD/sodipodi-0.dtd"
   xmlns:inkscape="http://www.inkscape.org/namespaces/inkscape"
   width="210mm"
   height="297mm"
   viewBox="0 0 210 297"
   version="1.1"
   id="svg3747"
   inkscape:version="0.92.3 (2405546, 2018-03-11)"
   sodipodi:docname="Armor.svg"
   inkscape:export-filename="/home/boss/Documents/GitlabThings/deathmatch/Assets/Armor.svg.png"
   inkscape:export-xdpi="102.8709"
   inkscape:export-ydpi="102.8709">
  <defs
     id="defs3741" />
  <sodipodi:namedview
     id="base"
     pagecolor="#ffffff"
     bordercolor="#666666"
     borderopacity="1.0"
     inkscape:pageopacity="0.0"
     inkscape:pageshadow="2"
     inkscape:zoom="0.98994949"
     inkscape:cx="210.72583"
     inkscape:cy="483.49351"
     inkscape:document-units="mm"
     inkscape:current-layer="layer1"
     showgrid="false"
     inkscape:snap-global="false"
     inkscape:measure-start="0,0"
     inkscape:measure-end="0,0"
     inkscape:window-width="2560"
     inkscape:window-height="1381"
     inkscape:window-x="0"
     inkscape:window-y="0"
     inkscape:window-maximized="1" />
  <metadata
     id="metadata3744">
    <rdf:RDF>
      <cc:Work
         rdf:about="">
        <dc:format>image/svg+xml</dc:format>
        <dc:type
           rdf:resource="http://purl.org/dc/dcmitype/StillImage" />
        <dc:title></dc:title>
      </cc:Work>
    </rdf:RDF>
  </metadata>
  <g
     inkscape:label="Layer 1"
     inkscape:groupmode="layer"
     id="layer1">
    <path
       style="fill:#000000;stroke-width:0.99999994"
       d="M 406.58594,296.21484 A 238.90108,238.90108 0 0 0 167.68555,535.11523 238.90108,238.90108 0 0 0 406.58594,774.01758 238.90108,238.90108 0 0 0 645.48828,535.11523 238.90108,238.90108 0 0 0 406.58594,296.21484 Z m 0,125.42383 A 113.47801,113.47801 0 0 1 520.06445,535.11523 113.47801,113.47801 0 0 1 406.58594,648.59375 113.47801,113.47801 0 0 1 293.10742,535.11523 113.47801,113.47801 0 0 1 406.58594,421.63867 Z"
       transform="scale(0.26458333)"
       id="path3749"
       inkscape:connector-curvature="0" />
    <path
       style="fill:#2a7fff;stroke-width:0.94999999"
       d="M 406.58594,308.16016 A 226.95603,226.95603 0 0 0 179.63086,535.11523 226.95603,226.95603 0 0 0 406.58594,762.07227 226.95603,226.95603 0 0 0 633.54297,535.11523 226.95603,226.95603 0 0 0 406.58594,308.16016 Z m 0,113.47851 A 113.47801,113.47801 0 0 1 520.06445,535.11523 113.47801,113.47801 0 0 1 406.58594,648.59375 113.47801,113.47801 0 0 1 293.10742,535.11523 113.47801,113.47801 0 0 1 406.58594,421.63867 Z"
       transform="scale(0.26458333)"
       id="circle3751"
       inkscape:connector-curvature="0" />
    <circle
       style="fill:#00ffff;stroke-width:0.26458332"
       id="path3766"
       cx="69.890976"
       cy="102.56142"
       r="3.6081386" />
    <circle
       r="3.6081386"
       cy="86.792511"
       cx="109.71413"
       id="circle3768"
       style="fill:#00ffff;stroke-width:0.26458332" />
    <circle
       style="fill:#00ffff;stroke-width:0.26458332"
       id="circle3770"
       cx="144.72644"
       cy="101.75961"
       r="3.6081386" />
    <circle
       r="3.6081386"
       cy="129.28838"
       cx="160.49535"
       id="circle3772"
       style="fill:#00ffff;stroke-width:0.26458332" />
    <circle
       style="fill:#00ffff;stroke-width:0.26458332"
       id="circle3774"
       cx="159.159"
       cy="158.15349"
       r="3.6081386" />
    <circle
       r="3.6081386"
       cy="180.60413"
       cx="145.26099"
       id="circle3776"
       style="fill:#00ffff;stroke-width:0.26458332" />
    <circle
       style="fill:#00ffff;stroke-width:0.26458332"
       id="circle3778"
       cx="122.27581"
       cy="193.16579"
       r="3.6081386" />
    <circle
       r="3.6081386"
       cy="191.02763"
       cx="85.392616"
       id="circle3780"
       style="fill:#00ffff;stroke-width:0.26458332" />
    <circle
       style="fill:#00ffff;stroke-width:0.26458332"
       id="circle3782"
       cx="62.407436"
       cy="171.78423"
       r="3.6081386" />
    <circle
       r="3.6081386"
       cy="139.17734"
       cx="53.320271"
       id="circle3784"
       style="fill:#00ffff;stroke-width:0.26458332"
       inkscape:export-xdpi="1802.1477"
       inkscape:export-ydpi="1802.1477" />
  </g>
</svg>
