[gd_scene load_steps=3 format=2]

[ext_resource path="res://Shields/Shield.gd" type="Script" id=1]


[sub_resource type="CircleShape2D" id=1]
radius = 65.6706

[node name="Shield" type="Area2D"]
script = ExtResource( 1 )
__meta__ = {
"_edit_group_": true,
"_edit_lock_": true
}

[node name="Sprite" type="Sprite" parent="."]

[node name="CollisionShape2D" type="CollisionShape2D" parent="."]
shape = SubResource( 1 )

