<?xml version="1.0" encoding="UTF-8" standalone="no"?>
<!-- Created with Inkscape (http://www.inkscape.org/) -->

<svg
   xmlns:dc="http://purl.org/dc/elements/1.1/"
   xmlns:cc="http://creativecommons.org/ns#"
   xmlns:rdf="http://www.w3.org/1999/02/22-rdf-syntax-ns#"
   xmlns:svg="http://www.w3.org/2000/svg"
   xmlns="http://www.w3.org/2000/svg"
   xmlns:sodipodi="http://sodipodi.sourceforge.net/DTD/sodipodi-0.dtd"
   xmlns:inkscape="http://www.inkscape.org/namespaces/inkscape"
   width="210mm"
   height="297mm"
   viewBox="0 0 210 297"
   version="1.1"
   id="svg44"
   inkscape:version="0.92.4 (5da689c313, 2019-01-14)"
   sodipodi:docname="Gun.svg">
  <defs
     id="defs38" />
  <sodipodi:namedview
     id="base"
     pagecolor="#ffffff"
     bordercolor="#666666"
     borderopacity="1.0"
     inkscape:pageopacity="0.0"
     inkscape:pageshadow="2"
     inkscape:zoom="1.0824912"
     inkscape:cx="213.3934"
     inkscape:cy="716.04947"
     inkscape:document-units="mm"
     inkscape:current-layer="layer1"
     showgrid="false"
     inkscape:snap-global="false"
     inkscape:window-width="1920"
     inkscape:window-height="1186"
     inkscape:window-x="-11"
     inkscape:window-y="-11"
     inkscape:window-maximized="1" />
  <metadata
     id="metadata41">
    <rdf:RDF>
      <cc:Work
         rdf:about="">
        <dc:format>image/svg+xml</dc:format>
        <dc:type
           rdf:resource="http://purl.org/dc/dcmitype/StillImage" />
        <dc:title></dc:title>
      </cc:Work>
    </rdf:RDF>
  </metadata>
  <g
     inkscape:label="Layer 1"
     inkscape:groupmode="layer"
     id="layer1">
    <path
       style="fill:#000000;stroke-width:0.26458332"
       d="M 167.93773,152.67431 C 152.65003,95.619838 145.28784,49.408238 117.34779,49.408248 c -27.94005,0 -35.7458,47.867 -50.589932,103.266062 -14.761036,55.08893 0.35393,93.18283 50.589932,93.18283 50.88806,0 65.35098,-38.09389 50.58994,-93.18283 z"
       id="path46"
       inkscape:connector-curvature="0"
       sodipodi:nodetypes="sssss" />
    <path
       sodipodi:nodetypes="sssss"
       inkscape:connector-curvature="0"
       id="path49"
       d="m 164.80846,146.06806 c -14.29153,-54.731902 -21.4184,-93.685065 -47.53783,-93.685055 -26.119432,0 -33.172125,40.541173 -47.048987,93.685055 -13.79918,52.84638 0.330868,89.38955 47.293407,89.38955 47.5721,0 61.09259,-36.54317 47.29341,-89.38955 z"
       style="fill:#666666;stroke-width:0.25055674" />
    <path
       style="fill:#800000;stroke-width:0.26458332"
       d="m 110.56769,187.53534 c -1e-5,-3.55251 -4.74792,-6.43239 -10.604764,-6.43239 -5.85684,0 -10.60475,2.87988 -10.60476,6.43239 0,3.55252 5.09561,2.60773 10.952464,2.60773 5.85685,0 10.25706,0.94479 10.25706,-2.60773 z"
       id="path51"
       inkscape:connector-curvature="0"
       sodipodi:nodetypes="sssss" />
    <path
       sodipodi:nodetypes="sssss"
       inkscape:connector-curvature="0"
       id="path54"
       d="m 143.25122,187.53534 c -1e-5,-3.55251 -4.74792,-6.43239 -10.60476,-6.43239 -5.85684,0 -10.60476,2.87988 -10.60476,6.43239 0,3.55252 5.09561,2.60773 10.95246,2.60773 5.85685,0 10.25706,0.94479 10.25706,-2.60773 z"
       style="fill:#800000;stroke-width:0.26458332" />
    <path
       sodipodi:nodetypes="sssss"
       inkscape:connector-curvature="0"
       id="path56"
       d="m 110.56769,205.26789 c -1e-5,-3.55251 -4.74792,-6.43239 -10.604764,-6.43239 -5.85684,0 -10.60475,2.87988 -10.60476,6.43239 0,3.55252 5.09561,2.60773 10.952464,2.60773 5.85685,0 10.25706,0.94479 10.25706,-2.60773 z"
       style="fill:#800000;stroke-width:0.26458332" />
    <path
       style="fill:#800000;stroke-width:0.26458332"
       d="m 143.25122,205.26789 c -1e-5,-3.55251 -4.74792,-6.43239 -10.60476,-6.43239 -5.85684,0 -10.60476,2.87988 -10.60476,6.43239 0,3.55252 5.09561,2.60773 10.95246,2.60773 5.85685,0 10.25706,0.94479 10.25706,-2.60773 z"
       id="path58"
       inkscape:connector-curvature="0"
       sodipodi:nodetypes="sssss" />
    <path
       style="fill:#800000;stroke-width:0.26458332"
       d="m 110.56769,223.34814 c -1e-5,-3.55251 -4.74792,-6.43239 -10.604764,-6.43239 -5.85684,0 -10.60475,2.87988 -10.60476,6.43239 0,3.55252 5.09561,2.60773 10.952464,2.60773 5.85685,0 10.25706,0.94479 10.25706,-2.60773 z"
       id="path60"
       inkscape:connector-curvature="0"
       sodipodi:nodetypes="sssss" />
    <path
       sodipodi:nodetypes="sssss"
       inkscape:connector-curvature="0"
       id="path62"
       d="m 143.25122,223.34814 c -1e-5,-3.55251 -4.74792,-6.43239 -10.60476,-6.43239 -5.85684,0 -10.60476,2.87988 -10.60476,6.43239 0,3.55252 5.09561,2.60773 10.95246,2.60773 5.85685,0 10.25706,0.94479 10.25706,-2.60773 z"
       style="fill:#800000;stroke-width:0.26458332" />
    <path
       sodipodi:nodetypes="sssss"
       inkscape:connector-curvature="0"
       id="path64"
       d="m 108.55278,187.18282 c -1e-5,-2.87754 -3.84581,-5.21024 -8.589854,-5.21024 -4.74404,0 -8.589847,2.3327 -8.589856,5.21024 0,2.87754 4.127445,2.11226 8.8715,2.11226 4.74404,0 8.30821,0.76528 8.30821,-2.11226 z"
       style="fill:#ff0000;stroke-width:0.21431248" />
    <path
       style="fill:#ff0000;stroke-width:0.21431248"
       d="m 141.23631,187.18282 c -1e-5,-2.87754 -3.84581,-5.21024 -8.58985,-5.21024 -4.74404,0 -8.58985,2.3327 -8.58985,5.21024 0,2.87754 4.12743,2.11226 8.87149,2.11226 4.74404,0 8.30821,0.76528 8.30821,-2.11226 z"
       id="path66"
       inkscape:connector-curvature="0"
       sodipodi:nodetypes="sssss" />
    <path
       style="fill:#ff0000;stroke-width:0.21431248"
       d="m 108.55278,204.91537 c -1e-5,-2.87754 -3.84581,-5.21024 -8.589854,-5.21024 -4.74404,0 -8.589847,2.3327 -8.589856,5.21024 0,2.87754 4.127445,2.11226 8.8715,2.11226 4.74404,0 8.30821,0.76528 8.30821,-2.11226 z"
       id="path68"
       inkscape:connector-curvature="0"
       sodipodi:nodetypes="sssss" />
    <path
       sodipodi:nodetypes="sssss"
       inkscape:connector-curvature="0"
       id="path70"
       d="m 141.23631,204.91537 c -1e-5,-2.87754 -3.84581,-5.21024 -8.58985,-5.21024 -4.74404,0 -8.58985,2.3327 -8.58985,5.21024 0,2.87754 4.12743,2.11226 8.87149,2.11226 4.74404,0 8.30821,0.76528 8.30821,-2.11226 z"
       style="fill:#ff0000;stroke-width:0.21431248" />
    <path
       sodipodi:nodetypes="sssss"
       inkscape:connector-curvature="0"
       id="path72"
       d="m 108.55278,222.99562 c -1e-5,-2.87754 -3.84581,-5.21024 -8.589854,-5.21024 -4.74404,0 -8.589847,2.3327 -8.589856,5.21024 0,2.87754 4.127445,2.11226 8.8715,2.11226 4.74404,0 8.30821,0.76528 8.30821,-2.11226 z"
       style="fill:#ff0000;stroke-width:0.21431248" />
    <path
       style="fill:#ff0000;stroke-width:0.21431248"
       d="m 141.23631,222.99562 c -1e-5,-2.87754 -3.84581,-5.21024 -8.58985,-5.21024 -4.74404,0 -8.58985,2.3327 -8.58985,5.21024 0,2.87754 4.12743,2.11226 8.87149,2.11226 4.74404,0 8.30821,0.76528 8.30821,-2.11226 z"
       id="path74"
       inkscape:connector-curvature="0"
       sodipodi:nodetypes="sssss" />
    <path
       style="fill:#333333;stroke-width:0.25100577"
       d="m 129.13972,60.400692 c 0,2.969777 -3.13151,2.199788 -11.87885,2.199787 -8.74735,0 -12.97874,0.281148 -12.97874,-2.688629 0,-2.969777 4.45137,-2.933049 13.19871,-2.933049 8.74735,-10e-7 11.65888,0.452113 11.65888,3.421891 z"
       id="path3779"
       inkscape:connector-curvature="0"
       sodipodi:nodetypes="sssss" />
  </g>
</svg>
