<?xml version="1.0" encoding="UTF-8" standalone="no"?>
<!-- Created with Inkscape (http://www.inkscape.org/) -->

<svg
   xmlns:dc="http://purl.org/dc/elements/1.1/"
   xmlns:cc="http://creativecommons.org/ns#"
   xmlns:rdf="http://www.w3.org/1999/02/22-rdf-syntax-ns#"
   xmlns:svg="http://www.w3.org/2000/svg"
   xmlns="http://www.w3.org/2000/svg"
   xmlns:sodipodi="http://sodipodi.sourceforge.net/DTD/sodipodi-0.dtd"
   xmlns:inkscape="http://www.inkscape.org/namespaces/inkscape"
   width="210mm"
   height="297mm"
   viewBox="0 0 210 297"
   version="1.1"
   id="svg140"
   inkscape:version="0.92.3 (2405546, 2018-03-11)"
   sodipodi:docname="Bomb.svg"
   inkscape:export-filename="/home/boss/Documents/GitlabThings/deathmatch/Ammunition/Bomb/Bomb.png"
   inkscape:export-xdpi="13.93537"
   inkscape:export-ydpi="13.93537">
  <defs
     id="defs134" />
  <sodipodi:namedview
     id="base"
     pagecolor="#ffffff"
     bordercolor="#666666"
     borderopacity="1.0"
     inkscape:pageopacity="0.0"
     inkscape:pageshadow="2"
     inkscape:zoom="0.49497475"
     inkscape:cx="-16.473915"
     inkscape:cy="317.86333"
     inkscape:document-units="mm"
     inkscape:current-layer="layer1"
     showgrid="false"
     inkscape:window-width="2560"
     inkscape:window-height="1381"
     inkscape:window-x="0"
     inkscape:window-y="0"
     inkscape:window-maximized="1" />
  <metadata
     id="metadata137">
    <rdf:RDF>
      <cc:Work
         rdf:about="">
        <dc:format>image/svg+xml</dc:format>
        <dc:type
           rdf:resource="http://purl.org/dc/dcmitype/StillImage" />
        <dc:title></dc:title>
      </cc:Work>
    </rdf:RDF>
  </metadata>
  <g
     inkscape:label="Layer 1"
     inkscape:groupmode="layer"
     id="layer1">
    <circle
       style="fill:#000000;stroke-width:0.26458332"
       id="path142"
       cx="110.36904"
       cy="143.91963"
       r="56.318451" />
    <ellipse
       cy="143.91963"
       cx="110.36904"
       id="circle144"
       style="fill:#1a1a1a;stroke-width:0.25522947"
       rx="53.483631"
       ry="55.184521" />
    <path
       style="fill:#ffffff;stroke-width:0.26458332"
       d="m 162.52976,152.04613 c -3.5737,35.80631 -51.85229,50.47111 -48.00298,44.22321 11.3564,0.75875 43.30514,-22.72982 48.00298,-44.22321 z"
       id="path146"
       inkscape:connector-curvature="0"
       sodipodi:nodetypes="ccc" />
    <ellipse
       style="fill:#333333;stroke-width:0.26458332"
       id="path149"
       cx="126.81939"
       cy="108.6418"
       rx="8.5526247"
       ry="8.3521729" />
    <ellipse
       ry="7.4167295"
       rx="7.2162771"
       cy="108.6418"
       cx="126.81939"
       id="ellipse151"
       style="fill:#000000;stroke-width:0.22902128" />
    <path
       style="fill:#d40000;stroke-width:0.26458332"
       d="m 119.60311,97.282846 c 1e-5,6.088864 7.99645,12.227584 4.34313,12.227584 -3.65332,0 -7.68399,-6.53962 -7.68399,-12.628488 0,-6.088866 -3.31924,-13.296658 0.33408,-13.296659 3.65332,10e-7 3.00678,7.608697 3.00678,13.697563 z"
       id="path153"
       inkscape:connector-curvature="0"
       sodipodi:nodetypes="sssss" />
    <path
       sodipodi:nodetypes="sssss"
       inkscape:connector-curvature="0"
       id="path156"
       d="m 128.69027,97.416481 c 1e-5,6.088859 1.98289,10.757599 -1.67043,10.757599 -3.65332,0 -1.67043,-5.06964 -1.67043,-11.158503 0,-6.088866 2.29342,-11.96031 5.94674,-11.960311 3.65332,10e-7 -2.60588,6.272349 -2.60588,12.361215 z"
       style="fill:#d40000;stroke-width:0.26458332" />
    <path
       style="fill:#d40000;stroke-width:0.30078185"
       d="m 135.43005,104.64048 c -0.0331,4.11206 -3.91323,4.79989 -5.19655,5.80539 -5.49527,4.30562 0.68338,-2.35952 0.68338,-6.47742 0,-4.117904 2.51161,-7.687864 9.49275,-7.687864 6.98114,0 -4.94647,4.242124 -4.97958,8.359894 z"
       id="path158"
       inkscape:connector-curvature="0"
       sodipodi:nodetypes="sssss" />
  </g>
</svg>
