<?xml version="1.0" encoding="UTF-8" standalone="no"?>
<!-- Created with Inkscape (http://www.inkscape.org/) -->

<svg
   xmlns:dc="http://purl.org/dc/elements/1.1/"
   xmlns:cc="http://creativecommons.org/ns#"
   xmlns:rdf="http://www.w3.org/1999/02/22-rdf-syntax-ns#"
   xmlns:svg="http://www.w3.org/2000/svg"
   xmlns="http://www.w3.org/2000/svg"
   xmlns:sodipodi="http://sodipodi.sourceforge.net/DTD/sodipodi-0.dtd"
   xmlns:inkscape="http://www.inkscape.org/namespaces/inkscape"
   width="210mm"
   height="297mm"
   viewBox="0 0 210 297"
   version="1.1"
   id="svg99"
   inkscape:version="0.92.3 (2405546, 2018-03-11)"
   sodipodi:docname="Bomber.svg"
   inkscape:export-filename="/home/boss/Documents/GitlabThings/deathmatch/Guns/Bomber/Bomber.png"
   inkscape:export-xdpi="22.458485"
   inkscape:export-ydpi="22.458485">
  <defs
     id="defs93" />
  <sodipodi:namedview
     id="base"
     pagecolor="#ffffff"
     bordercolor="#666666"
     borderopacity="1.0"
     inkscape:pageopacity="0.0"
     inkscape:pageshadow="2"
     inkscape:zoom="0.7"
     inkscape:cx="159.74273"
     inkscape:cy="577.68934"
     inkscape:document-units="mm"
     inkscape:current-layer="layer1"
     showgrid="false"
     inkscape:window-width="2560"
     inkscape:window-height="1381"
     inkscape:window-x="0"
     inkscape:window-y="0"
     inkscape:window-maximized="1" />
  <metadata
     id="metadata96">
    <rdf:RDF>
      <cc:Work
         rdf:about="">
        <dc:format>image/svg+xml</dc:format>
        <dc:type
           rdf:resource="http://purl.org/dc/dcmitype/StillImage" />
        <dc:title></dc:title>
      </cc:Work>
    </rdf:RDF>
  </metadata>
  <g
     inkscape:label="Layer 1"
     inkscape:groupmode="layer"
     id="layer1">
    <circle
       style="fill:#ac9d93;stroke-width:0.26458332"
       id="path103"
       cx="107.15625"
       cy="141.08481"
       r="68.980659" />
    <ellipse
       style="fill:#000000;stroke-width:0.26458332"
       id="path107"
       cx="68.791664"
       cy="75.127968"
       rx="12.095239"
       ry="12.473214" />
    <ellipse
       ry="12.473214"
       rx="12.095239"
       cy="86.467255"
       cx="154.97023"
       id="ellipse109"
       style="fill:#000000;stroke-width:0.26458332" />
    <ellipse
       style="fill:#000000;stroke-width:0.26458332"
       id="ellipse111"
       cx="161.7738"
       cy="195.70238"
       rx="12.095239"
       ry="12.473214" />
    <ellipse
       ry="12.473214"
       rx="12.095239"
       cy="172.64583"
       cx="43.467255"
       id="ellipse113"
       style="fill:#000000;stroke-width:0.26458332" />
  </g>
</svg>
