<?xml version="1.0" encoding="UTF-8" standalone="no"?>
<!-- Created with Inkscape (http://www.inkscape.org/) -->

<svg
   xmlns:dc="http://purl.org/dc/elements/1.1/"
   xmlns:cc="http://creativecommons.org/ns#"
   xmlns:rdf="http://www.w3.org/1999/02/22-rdf-syntax-ns#"
   xmlns:svg="http://www.w3.org/2000/svg"
   xmlns="http://www.w3.org/2000/svg"
   xmlns:sodipodi="http://sodipodi.sourceforge.net/DTD/sodipodi-0.dtd"
   xmlns:inkscape="http://www.inkscape.org/namespaces/inkscape"
   width="210mm"
   height="297mm"
   viewBox="0 0 210 297"
   version="1.1"
   id="svg3838"
   inkscape:version="0.92.3 (2405546, 2018-03-11)"
   sodipodi:docname="ShieldCrate.svg"
   inkscape:export-filename="/home/boss/Documents/GitlabThings/deathmatch/Assets/ShieldCrate.png"
   inkscape:export-xdpi="94.783485"
   inkscape:export-ydpi="94.783485">
  <defs
     id="defs3832" />
  <sodipodi:namedview
     id="base"
     pagecolor="#ffffff"
     bordercolor="#666666"
     borderopacity="1.0"
     inkscape:pageopacity="0.0"
     inkscape:pageshadow="2"
     inkscape:zoom="0.7"
     inkscape:cx="572.04441"
     inkscape:cy="788.47937"
     inkscape:document-units="mm"
     inkscape:current-layer="layer1"
     showgrid="false"
     inkscape:measure-start="0,0"
     inkscape:measure-end="0,0"
     inkscape:window-width="2560"
     inkscape:window-height="1381"
     inkscape:window-x="0"
     inkscape:window-y="0"
     inkscape:window-maximized="1" />
  <metadata
     id="metadata3835">
    <rdf:RDF>
      <cc:Work
         rdf:about="">
        <dc:format>image/svg+xml</dc:format>
        <dc:type
           rdf:resource="http://purl.org/dc/dcmitype/StillImage" />
        <dc:title></dc:title>
      </cc:Work>
    </rdf:RDF>
  </metadata>
  <g
     inkscape:label="Layer 1"
     inkscape:groupmode="layer"
     id="layer1">
    <rect
       style="fill:#c87137;stroke-width:0.26458332"
       id="rect3842"
       width="137.20535"
       height="113.77083"
       x="34.773811"
       y="91.758926"
       ry="0" />
    <rect
       ry="0"
       y="97.447472"
       x="41.634079"
       height="102.39375"
       width="123.48482"
       id="rect3844"
       style="fill:#a05a2c;stroke-width:0.23812498" />
    <rect
       style="fill:#d38d5f;stroke-width:0.06013008"
       id="rect3846"
       width="115.9253"
       height="6.9547634"
       x="45.413841"
       y="110.10967"
       ry="0" />
    <rect
       ry="0"
       y="117.06443"
       x="45.413841"
       height="6.9547634"
       width="115.9253"
       id="rect3848"
       style="fill:#c87137;stroke-width:0.06013008" />
    <rect
       ry="0"
       y="162.64836"
       x="45.413841"
       height="6.9547634"
       width="115.9253"
       id="rect3850"
       style="fill:#d38d5f;stroke-width:0.06013008" />
    <rect
       style="fill:#c87137;stroke-width:0.06013008"
       id="rect3852"
       width="115.9253"
       height="6.9547634"
       x="45.413841"
       y="169.60312"
       ry="0" />
    <rect
       style="fill:#999999;stroke-width:0.08515223"
       id="rect3856"
       width="115.9253"
       height="13.947323"
       x="45.413841"
       y="132.37247"
       ry="4.1577382"
       rx="4.0632439" />
    <text
       xml:space="preserve"
       style="font-style:normal;font-weight:normal;font-size:10.58333302px;line-height:1.25;font-family:sans-serif;letter-spacing:0px;word-spacing:0px;fill:#0000ff;fill-opacity:1;stroke:none;stroke-width:0.26458332;"
       x="87.501488"
       y="142.78571"
       id="text3860"><tspan
         sodipodi:role="line"
         id="tspan3858"
         x="87.501488"
         y="142.78571"
         style="fill:#0000ff;stroke-width:0.26458332;">SHIELD</tspan></text>
  </g>
</svg>
